[
    {
        "id": "twitter",
        "name": "Twitter",
        "code": "<a href='https://twitter.com/share' class='twitter-share-button'>Tweet</a>"
    },
    {
        "id": "facebook",
        "name": "Facebook",
        "code": "<div class='fb-share-button' data-type='button_count'></div>"
    },
    {
        "id": "reddit",
        "name": "Reddit",
        "code": "<script src='http://www.reddit.com/buttonlite.js?i=1&amp;url={{url}}'></script>"
    },
    {
        "id": "linkedin",
        "name": "LinkedIn",
        "code": "<script src='//platform.linkedin.com/in.js'></script><script data-counter='right' type='IN/Share'></script>"
    },
    {
        "id": "stumbleupon",
        "name": "StumbleUpon",
        "code": "<script src='http://www.stumbleupon.com/hostedbadge.php?s=1&amp;r={{url}}'></script>"
    },
    {
        "id": "link",
        "name": "Link",
        "code": "<p class='selectall'><input style='width:100%;max-width:300px;padding:3px 5px;font-size:.9em;color:#666' type='text' value='{{url}}'></p><script>$(document).on('click', 'p.selectall > input[type=text]', function (){this.select();});</script>"
    }
]
